<?xml version="1.0" encoding="UTF-8"?>
<svg xmlns="http://www.w3.org/2000/svg" xmlns:xlink="http://www.w3.org/1999/xlink" width="1920pt" height="1080pt" viewBox="0 0 1920 1080" version="1.1">
<defs>
<g>
<symbol overflow="visible" id="glyph0-0">
<path style="stroke:none;" d="M 0.546875 1.96875 L 0.546875 -7.828125 L 6.109375 -7.828125 L 6.109375 1.96875 Z M 1.171875 1.34375 L 5.484375 1.34375 L 5.484375 -7.203125 L 1.171875 -7.203125 Z "/>
</symbol>
<symbol overflow="visible" id="glyph0-1">
<path style="stroke:none;" d="M 5.59375 -8.09375 L 5.59375 -7.203125 L 1.875 -7.203125 L 1.875 -4.890625 C 2.0625 -5.015625 2.28125 -5.109375 2.53125 -5.171875 C 2.78125 -5.242188 3.0625 -5.28125 3.375 -5.28125 C 4.25 -5.28125 4.941406 -5.035156 5.453125 -4.546875 C 5.960938 -4.066406 6.21875 -3.40625 6.21875 -2.5625 C 6.21875 -1.707031 5.957031 -1.039062 5.4375 -0.5625 C 4.925781 -0.0820312 4.207031 0.15625 3.28125 0.15625 C 2.914062 0.15625 2.535156 0.109375 2.140625 0.015625 C 1.753906 -0.0664062 1.351562 -0.203125 0.9375 -0.390625 L 0.9375 -1.96875 L 1.5625 -1.96875 C 1.59375 -1.445312 1.753906 -1.050781 2.046875 -0.78125 C 2.335938 -0.507812 2.75 -0.375 3.28125 -0.375 C 3.851562 -0.375 4.289062 -0.5625 4.59375 -0.9375 C 4.90625 -1.320312 5.0625 -1.863281 5.0625 -2.5625 C 5.0625 -3.269531 4.910156 -3.804688 4.609375 -4.171875 C 4.304688 -4.546875 3.863281 -4.734375 3.28125 -4.734375 C 2.957031 -4.734375 2.671875 -4.675781 2.421875 -4.5625 C 2.179688 -4.445312 1.960938 -4.269531 1.765625 -4.03125 L 1.296875 -4.03125 L 1.296875 -8.09375 Z "/>
</symbol>
<symbol overflow="visible" id="glyph0-2">
<path style="stroke:none;" d="M 5.09375 -6.96875 L 5.09375 -3.921875 L 8.125 -3.921875 L 8.125 -3.046875 L 5.09375 -3.046875 L 5.09375 0 L 4.21875 0 L 4.21875 -3.046875 L 1.171875 -3.046875 L 1.171875 -3.921875 L 4.21875 -3.921875 L 4.21875 -6.96875 Z "/>
</symbol>
<symbol overflow="visible" id="glyph0-3">
<path style="stroke:none;" d="M 1.578125 0 L 1.578125 -0.578125 L 2.984375 -0.578125 L 2.984375 -7.3125 L 1.359375 -6.25 L 1.359375 -6.96875 L 3.328125 -8.25 L 4.078125 -8.25 L 4.078125 -0.578125 L 5.484375 -0.578125 L 5.484375 0 Z "/>
</symbol>
<symbol overflow="visible" id="glyph0-4">
<path style="stroke:none;" d="M 1.171875 -5.015625 L 8.125 -5.015625 L 8.125 -4.15625 L 1.171875 -4.15625 Z M 1.171875 -2.8125 L 8.125 -2.8125 L 8.125 -1.9375 L 1.171875 -1.9375 Z "/>
</symbol>
<symbol overflow="visible" id="glyph0-5">
<path style="stroke:none;" d="M 3.640625 -0.375 C 4.148438 -0.375 4.539062 -0.5625 4.8125 -0.9375 C 5.082031 -1.3125 5.21875 -1.851562 5.21875 -2.5625 C 5.21875 -3.257812 5.082031 -3.796875 4.8125 -4.171875 C 4.539062 -4.546875 4.148438 -4.734375 3.640625 -4.734375 C 3.117188 -4.734375 2.722656 -4.550781 2.453125 -4.1875 C 2.179688 -3.820312 2.046875 -3.300781 2.046875 -2.625 C 2.046875 -1.90625 2.179688 -1.347656 2.453125 -0.953125 C 2.734375 -0.566406 3.128906 -0.375 3.640625 -0.375 Z M 1.859375 -4.453125 C 2.109375 -4.722656 2.390625 -4.925781 2.703125 -5.0625 C 3.015625 -5.195312 3.363281 -5.265625 3.75 -5.265625 C 4.5625 -5.265625 5.203125 -5.019531 5.671875 -4.53125 C 6.140625 -4.050781 6.375 -3.394531 6.375 -2.5625 C 6.375 -1.738281 6.117188 -1.078125 5.609375 -0.578125 C 5.109375 -0.0859375 4.4375 0.15625 3.59375 0.15625 C 2.675781 0.15625 1.972656 -0.179688 1.484375 -0.859375 C 0.992188 -1.546875 0.75 -2.519531 0.75 -3.78125 C 0.75 -5.195312 1.035156 -6.296875 1.609375 -7.078125 C 2.191406 -7.859375 3.015625 -8.25 4.078125 -8.25 C 4.359375 -8.25 4.65625 -8.21875 4.96875 -8.15625 C 5.289062 -8.101562 5.613281 -8.023438 5.9375 -7.921875 L 5.9375 -6.578125 L 5.328125 -6.578125 C 5.285156 -6.953125 5.144531 -7.234375 4.90625 -7.421875 C 4.675781 -7.609375 4.363281 -7.703125 3.96875 -7.703125 C 3.257812 -7.703125 2.734375 -7.4375 2.390625 -6.90625 C 2.046875 -6.375 1.867188 -5.554688 1.859375 -4.453125 Z "/>
</symbol>
</g>
</defs>
<g id="surface1">
<g style="fill:rgb(0%,0%,0%);fill-opacity:1;">
  <use xlink:href="#glyph0-1" x="30" y="30.3125"/>
  <use xlink:href="#glyph0-2" x="37.068359" y="30.3125"/>
  <use xlink:href="#glyph0-3" x="46.37793" y="30.3125"/>
  <use xlink:href="#glyph0-4" x="53.446289" y="30.3125"/>
  <use xlink:href="#glyph0-5" x="62.755859" y="30.3125"/>
</g>
</g>
</svg>
