<?xml version="1.0" encoding="UTF-8"?>
<svg xmlns="http://www.w3.org/2000/svg" xmlns:xlink="http://www.w3.org/1999/xlink" width="1920pt" height="1080pt" viewBox="0 0 1920 1080" version="1.1">
<defs>
<g>
<symbol overflow="visible" id="glyph0-0">
<path style="stroke:none;" d="M 1.25 4.421875 L 1.25 -17.625 L 13.75 -17.625 L 13.75 4.421875 Z M 2.65625 3.03125 L 12.359375 3.03125 L 12.359375 -16.21875 L 2.65625 -16.21875 Z "/>
</symbol>
<symbol overflow="visible" id="glyph0-1">
<path style="stroke:none;" d="M 3.546875 0 L 3.546875 -1.296875 L 6.71875 -1.296875 L 6.71875 -16.453125 L 3.046875 -14.078125 L 3.046875 -15.671875 L 7.5 -18.5625 L 9.1875 -18.5625 L 9.1875 -1.296875 L 12.359375 -1.296875 L 12.359375 0 Z "/>
</symbol>
<symbol overflow="visible" id="glyph0-2">
<path style="stroke:none;" d="M 7.953125 -0.859375 C 9.191406 -0.859375 10.117188 -1.539062 10.734375 -2.90625 C 11.359375 -4.269531 11.671875 -6.332031 11.671875 -9.09375 C 11.671875 -11.863281 11.359375 -13.929688 10.734375 -15.296875 C 10.117188 -16.660156 9.191406 -17.34375 7.953125 -17.34375 C 6.703125 -17.34375 5.765625 -16.660156 5.140625 -15.296875 C 4.523438 -13.929688 4.21875 -11.863281 4.21875 -9.09375 C 4.21875 -6.332031 4.523438 -4.269531 5.140625 -2.90625 C 5.765625 -1.539062 6.703125 -0.859375 7.953125 -0.859375 Z M 7.953125 0.359375 C 5.972656 0.359375 4.425781 -0.46875 3.3125 -2.125 C 2.195312 -3.789062 1.640625 -6.113281 1.640625 -9.09375 C 1.640625 -12.082031 2.195312 -14.40625 3.3125 -16.0625 C 4.425781 -17.726562 5.972656 -18.5625 7.953125 -18.5625 C 9.929688 -18.5625 11.472656 -17.726562 12.578125 -16.0625 C 13.691406 -14.40625 14.25 -12.082031 14.25 -9.09375 C 14.25 -6.113281 13.691406 -3.789062 12.578125 -2.125 C 11.472656 -0.46875 9.929688 0.359375 7.953125 0.359375 Z "/>
</symbol>
<symbol overflow="visible" id="glyph0-3">
<path style="stroke:none;" d="M 11.453125 -15.671875 L 11.453125 -8.828125 L 18.296875 -8.828125 L 18.296875 -6.84375 L 11.453125 -6.84375 L 11.453125 0 L 9.5 0 L 9.5 -6.84375 L 2.65625 -6.84375 L 2.65625 -8.828125 L 9.5 -8.828125 L 9.5 -15.671875 Z "/>
</symbol>
<symbol overflow="visible" id="glyph0-4">
<path style="stroke:none;" d="M 11.6875 -8.171875 C 11.144531 -7.554688 10.519531 -7.097656 9.8125 -6.796875 C 9.101562 -6.492188 8.304688 -6.34375 7.421875 -6.34375 C 5.617188 -6.34375 4.191406 -6.890625 3.140625 -7.984375 C 2.097656 -9.078125 1.578125 -10.566406 1.578125 -12.453125 C 1.578125 -14.296875 2.144531 -15.773438 3.28125 -16.890625 C 4.414062 -18.003906 5.929688 -18.5625 7.828125 -18.5625 C 9.878906 -18.5625 11.457031 -17.789062 12.5625 -16.25 C 13.664062 -14.71875 14.21875 -12.53125 14.21875 -9.6875 C 14.21875 -6.488281 13.5625 -4.015625 12.25 -2.265625 C 10.945312 -0.515625 9.101562 0.359375 6.71875 0.359375 C 6.082031 0.359375 5.410156 0.296875 4.703125 0.171875 C 3.992188 0.046875 3.269531 -0.132812 2.53125 -0.375 L 2.53125 -3.40625 L 3.890625 -3.40625 C 3.992188 -2.582031 4.3125 -1.953125 4.84375 -1.515625 C 5.375 -1.078125 6.082031 -0.859375 6.96875 -0.859375 C 8.550781 -0.859375 9.726562 -1.453125 10.5 -2.640625 C 11.269531 -3.835938 11.664062 -5.679688 11.6875 -8.171875 Z M 7.734375 -17.34375 C 6.578125 -17.34375 5.691406 -16.921875 5.078125 -16.078125 C 4.460938 -15.234375 4.15625 -14.023438 4.15625 -12.453125 C 4.15625 -10.867188 4.460938 -9.65625 5.078125 -8.8125 C 5.691406 -7.96875 6.578125 -7.546875 7.734375 -7.546875 C 8.878906 -7.546875 9.757812 -7.953125 10.375 -8.765625 C 10.988281 -9.585938 11.296875 -10.769531 11.296875 -12.3125 C 11.296875 -13.925781 10.988281 -15.164062 10.375 -16.03125 C 9.757812 -16.90625 8.878906 -17.34375 7.734375 -17.34375 Z "/>
</symbol>
<symbol overflow="visible" id="glyph0-5">
<path style="stroke:none;" d="M 11.640625 -4.984375 C 11.640625 -6.285156 11.316406 -7.296875 10.671875 -8.015625 C 10.023438 -8.734375 9.117188 -9.09375 7.953125 -9.09375 C 6.773438 -9.09375 5.863281 -8.734375 5.21875 -8.015625 C 4.570312 -7.296875 4.25 -6.285156 4.25 -4.984375 C 4.25 -3.671875 4.570312 -2.65625 5.21875 -1.9375 C 5.863281 -1.21875 6.773438 -0.859375 7.953125 -0.859375 C 9.117188 -0.859375 10.023438 -1.21875 10.671875 -1.9375 C 11.316406 -2.65625 11.640625 -3.671875 11.640625 -4.984375 Z M 11.140625 -13.828125 C 11.140625 -14.929688 10.859375 -15.789062 10.296875 -16.40625 C 9.734375 -17.03125 8.953125 -17.34375 7.953125 -17.34375 C 6.953125 -17.34375 6.164062 -17.03125 5.59375 -16.40625 C 5.03125 -15.789062 4.75 -14.929688 4.75 -13.828125 C 4.75 -12.710938 5.03125 -11.84375 5.59375 -11.21875 C 6.164062 -10.601562 6.953125 -10.296875 7.953125 -10.296875 C 8.953125 -10.296875 9.734375 -10.601562 10.296875 -11.21875 C 10.859375 -11.84375 11.140625 -12.710938 11.140625 -13.828125 Z M 9.828125 -9.703125 C 11.210938 -9.515625 12.289062 -9.003906 13.0625 -8.171875 C 13.832031 -7.335938 14.21875 -6.273438 14.21875 -4.984375 C 14.21875 -3.273438 13.675781 -1.957031 12.59375 -1.03125 C 11.507812 -0.101562 9.960938 0.359375 7.953125 0.359375 C 5.941406 0.359375 4.390625 -0.101562 3.296875 -1.03125 C 2.210938 -1.957031 1.671875 -3.273438 1.671875 -4.984375 C 1.671875 -6.273438 2.054688 -7.335938 2.828125 -8.171875 C 3.597656 -9.003906 4.679688 -9.515625 6.078125 -9.703125 C 4.847656 -9.921875 3.90625 -10.382812 3.25 -11.09375 C 2.59375 -11.8125 2.265625 -12.722656 2.265625 -13.828125 C 2.265625 -15.296875 2.769531 -16.453125 3.78125 -17.296875 C 4.789062 -18.140625 6.179688 -18.5625 7.953125 -18.5625 C 9.710938 -18.5625 11.097656 -18.140625 12.109375 -17.296875 C 13.117188 -16.453125 13.625 -15.296875 13.625 -13.828125 C 13.625 -12.722656 13.296875 -11.8125 12.640625 -11.09375 C 11.984375 -10.382812 11.046875 -9.921875 9.828125 -9.703125 Z "/>
</symbol>
<symbol overflow="visible" id="glyph0-6">
<path style="stroke:none;" d="M 2.65625 -11.296875 L 18.296875 -11.296875 L 18.296875 -9.34375 L 2.65625 -9.34375 Z M 2.65625 -6.328125 L 18.296875 -6.328125 L 18.296875 -4.375 L 2.65625 -4.375 Z "/>
</symbol>
<symbol overflow="visible" id="glyph0-7">
<path style="stroke:none;" d="M 3.203125 -13.875 L 1.828125 -13.875 L 1.828125 -17.125 C 2.703125 -17.59375 3.578125 -17.945312 4.453125 -18.1875 C 5.335938 -18.4375 6.207031 -18.5625 7.0625 -18.5625 C 8.957031 -18.5625 10.453125 -18.097656 11.546875 -17.171875 C 12.648438 -16.253906 13.203125 -15.003906 13.203125 -13.421875 C 13.203125 -11.640625 11.953125 -9.507812 9.453125 -7.03125 C 9.265625 -6.84375 9.117188 -6.703125 9.015625 -6.609375 L 4.421875 -2 L 12.03125 -2 L 12.03125 -4.25 L 13.453125 -4.25 L 13.453125 0 L 1.703125 0 L 1.703125 -1.328125 L 7.234375 -6.84375 C 8.453125 -8.0625 9.320312 -9.179688 9.84375 -10.203125 C 10.363281 -11.234375 10.625 -12.304688 10.625 -13.421875 C 10.625 -14.648438 10.300781 -15.609375 9.65625 -16.296875 C 9.019531 -16.992188 8.140625 -17.34375 7.015625 -17.34375 C 5.859375 -17.34375 4.960938 -17.050781 4.328125 -16.46875 C 3.691406 -15.894531 3.316406 -15.03125 3.203125 -13.875 Z "/>
</symbol>
</g>
</defs>
<g id="surface1">
<g style="fill:rgb(0%,0%,0%);fill-opacity:1;">
  <use xlink:href="#glyph0-1" x="30" y="43.206055"/>
  <use xlink:href="#glyph0-2" x="45.90625" y="43.206055"/>
  <use xlink:href="#glyph0-1" x="61.8125" y="43.206055"/>
  <use xlink:href="#glyph0-3" x="77.71875" y="43.206055"/>
  <use xlink:href="#glyph0-4" x="98.666016" y="43.206055"/>
  <use xlink:href="#glyph0-5" x="114.572266" y="43.206055"/>
  <use xlink:href="#glyph0-1" x="130.478516" y="43.206055"/>
  <use xlink:href="#glyph0-6" x="146.384766" y="43.206055"/>
  <use xlink:href="#glyph0-1" x="167.332031" y="43.206055"/>
  <use xlink:href="#glyph0-2" x="183.238281" y="43.206055"/>
  <use xlink:href="#glyph0-5" x="199.144531" y="43.206055"/>
  <use xlink:href="#glyph0-7" x="215.050781" y="43.206055"/>
</g>
</g>
</svg>
